\relax 
\catcode `^\active 
\catcode `"\active 
\catcode `'\active 
\catcode `-\active 
\select@language{slovak}
\@writefile{toc}{\select@language{slovak}}
\@writefile{lof}{\select@language{slovak}}
\@writefile{lot}{\select@language{slovak}}
\@writefile{lof}{\contentsline {figure}{\numberline {1}{\ignorespaces ERD Diagram}}{1}}
\@writefile{lof}{\contentsline {figure}{\numberline {2}{\ignorespaces UCD Diagram}}{2}}
\@writefile{toc}{\contentsline {section}{\numberline {1}Generaliz\IeC {\'a}cia/\IeC {\v S}pecializ\IeC {\'a}cia}{3}}
\@writefile{toc}{\contentsline {section}{\numberline {2}Triggery}{3}}
\@writefile{toc}{\contentsline {section}{\numberline {3}Proced\IeC {\'u}ry}{3}}
\@writefile{toc}{\contentsline {section}{\numberline {4}\texttt  {EXPLAIN PLAN}, \texttt  {INDEX}}{3}}
\@writefile{lot}{\contentsline {table}{\numberline {1}{\ignorespaces Cena oper\IeC {\'a}cie \texttt  {SELECT} bez pou\IeC {\v z}itia indexu}}{3}}
\@writefile{lot}{\contentsline {table}{\numberline {2}{\ignorespaces V\IeC {\'y}sledn\IeC {\'a} cena oper\IeC {\'a}cie \texttt  {SELECT} s pou\IeC {\v z}it\IeC {\'\i }m indexu}}{4}}
\@writefile{toc}{\contentsline {section}{\numberline {5}Pr\IeC {\'\i }stupov\IeC {\'e} pr\IeC {\'a}va}{4}}
\@writefile{toc}{\contentsline {section}{\numberline {6}Materializovan\IeC {\'y} poh\IeC {\v l}ad}{5}}
